{
  "status": 1,
  "looped": true,
  "revesred": false,
  "framerate": 10.0,
  "sprites": [
    "/img/animations/walk/walk1.png",
    "/img/animations/walk/walk2.png",
    "/img/animations/walk/walk3.png",
    "/img/animations/walk/walk4.png",
    "/img/animations/walk/walk5.png",
    "/img/animations/walk/walk6.png",
    "/img/animations/walk/walk7.png",
    "/img/animations/walk/walk8.png"
  ]
}