{
  "name": "Level 1",
  "tilemap": "/levels/level09.tmx",
  "lemmings to spawn": 1,
  "lemmings to save": 1,
  "musics": [
    "sound/OST/Level1.wav"
  ],
  "skills": [
    {
      "name": "stairs",
      "uses": 1
    },
    {
      "name": "blocker",
      "uses": 1
    },
    {
      "name": "digger",
      "uses": 1
    },
    {
      "name": "suicide",
      "uses": 1
    },
    {
      "name": "horizontalDigger",
      "uses": 1
    }
  ]
}