{
  "name": "Level 1",
  "tilemap": "/levels/level03.tmx",
  "lemmings to spawn": 15,
  "lemmings to save": 4,
  "musics": [
    "sound/OST/Level1.wav"
  ],
  "skills": [
    {
      "name": "stairs",
      "uses": 10
    },
    {
      "name": "blocker",
      "uses": 3
    },
    {
      "name": "digger",
      "uses": 5
    },
    {
      "name": "suicide",
      "uses": 999
    },
    {
      "name": "horizontalDigger",
      "uses": 3
    }
  ]
}