{
  "name": "Level 1",
  "tilemap": "/levels/level06.tmx",
  "lemmings to spawn": 30,
  "lemmings to save": 3,
  "musics": [
    "sound/OST/Level1.wav"
  ],
  "skills": [
    {
      "name": "stairs",
      "uses": 5
    },
    {
      "name": "digger",
      "uses": 1
    },
    {
      "name": "suicide",
      "uses": 3
    }
  ]
}