{
  "characters": [
    "/json/characters/Hillary.json",
    "/json/characters/MysteriousMerchant.json",
    "/json/characters/Group.json"
  ],
  "backgrounds": [
    "/img/backgrounds/airport.png"
  ],
  "musics": [
    "sound/OST/Dialogue2.wav"
  ],
  "dialogues": [
    {
      "character": {
        "id": 0,
        "behavior": "normal",
        "position": "right"
      },
      "background": 0,
      "music": 0,
      "text": "Shadow merchant, did you complete your mission?",
      "sound": "sound/characters/hclinton/hclinton00.wav"
    },
    {
      "character": {
        "id": 1,
        "behavior": "normal",
        "position": "left"
      },
      "text": "No, sorry.",
      "sound": "sound/characters/bmerchant/bmerchant03.wav"
    },
    {
      "character": {
        "id": 0,
        "behavior": "normal",
        "position": "right"
      },
      "text": "Explain yourself!",
      "sound": "sound/characters/hclinton/hclinton01.wav"
    },
    {
      "character": {
        "id": 1,
        "behavior": "normal",
        "position": "left"
      },
      "text": "it's a reference!",
      "sound": "sound/characters/bmerchant/bmerchant04.wav"
    },
    {
      "character": {
        "id": 2,
        "behavior": "normal",
        "position": "right"
      },
      "text": "..."
    },
    {
      "character": {
        "id": 1,
        "behavior": "normal",
        "position": "left"
      },
      "text": "To **Hercules** !"
    },
    {
      "character": {
        "id": 2,
        "behavior": "normal",
        "position": "right"
      },
      "text": "..."
    },
    {
      "character": {
        "id": 2,
        "behavior": "normal",
        "position": "right"
      },
      "text": "I told you no one knows...",
      "sound": "sound/characters/magsen/magsen01.wav"
    },
    {
      "character": {
        "id": 0,
        "behavior": "normal",
        "position": "right"
      },
      "text": "That's embarrassing. we need another plan. Doctor, did you finish our new toy ?",
        "sound": "sound/characters/hclinton/hclinton02.wav"
    },
    {
      "character": {
        "id": 2,
        "behavior": "normal",
        "position": "left"
      },
      "text": "hue hue hue !"
    }
  ]
}