{
  "characters": [
    "/json/characters/Hp.json",
    "/json/characters/Hero.json",
    "/json/characters/MysteriousMerchant.json",
    "/json/characters/Bernie.json",
    "/json/characters/Group.json"
  ],
  "backgrounds": [
    "/img/backgrounds/airport.png"
  ],
  "musics": [
    "sound/OST/Dialogue2.wav"
  ],
  "dialogues": [
    {
      "character": {
        "id": 0,
        "behavior": "normal",
        "position": "left"
      },
      "text": "Thank you for choosing United Airline, and please accept our apologies about the incident.",
      "sound": "sound/characters/hp/hp01.wav",
      "background": 0,
      "music": 0
    },
    {
      "character": {
        "id": 1,
        "behavior": "normal",
        "position": "right",
        "alone": true
      },
      "text": "It's true they went a bit too hard on that doctor. Of course, places were lacking but still, throwing him off the plane..\nHopefully they gave him a parachute. I'm sure it will help him to swim.",
      "sound": "sound/characters/hero/hero01.wav"
    },
    {
      "character": {
        "id": 2,
        "behavior": "normal",
        "position": "left"
      },
      "text": "Psst, hey, kiddo !",
      "sound": "sound/characters/bmerchant/bmerchant01.wav"
    },
    {
      "character": {
        "id": 1,
        "behavior": "normal",
        "position": "right"
      },
      "text": "?",
      "sound": "sound/characters/hero/hero02.wav"
    },
    {
      "character": {
        "id": 2,
        "behavior": "normal",
        "position": "left"
      },
      "text": "I sell sundials, want one ?",
      "sound": "sound/characters/bmerchant/bmerchant02.wav"
    },
    {
      "character": {
        "id": 1,
        "behavior": "normal",
        "position": "right"
      },
      "text": "Huh.. No... thanks. (I turn away and start to walk)",
      "sound": "sound/characters/hero/heroMISSING.wav"
    },
    {
      "character": {
        "id": 3,
        "behavior": "normal",
        "position": "left"
      },
      "text": "Pssst, hey, kiddo !",
      "sound": "sound/characters/bernie/bernie01.wav"
    },
    {
      "character": {
        "id": 1,
        "behavior": "normal",
        "position": "right"
      },
      "text": "I don't wan't sundial !",
      "sound": "sound/characters/hero/hero03.wav"
    },
    {
      "character": {
        "id": 3,
        "behavior": "normal",
        "position": "left"
      },
      "text": "Calm down, I don't wan't to sell you any sundial.",
      "sound": "sound/characters/bernie/bernie02.wav"
    },
    {
      "character": {
        "id": 1,
        "behavior": "normal",
        "position": "right"
      },
      "text": "Oh, I very sorry-sorry.",
      "sound": "sound/characters/hero/hero04.wav"
    },
    {
      "character": {
        "id": 3,
        "behavior": "joy",
        "position": "left"
      },
      "text": "Do you know me ? I'm Bernie, Bernie Sanders !",
      "sound": "sound/characters/bernie/bernie03.wav"
    },
    {
      "character": {
        "id": 4,
        "behavior": "normal",
        "position": "right"
      },
      "text": "B E R N I E !",
      "sound": "sound/characters/many/many01.wav"
    },
    {
      "character": {
        "id": 3,
        "behavior": "normal",
        "position": "left"
      },
      "text": "Hem... We don't have time for this. Come on !",
      "sound": "sound/characters/bernie/bernie04.wav"
    }
  ]
}
