{
  "first name": "Franck",
  "last name": "Gechter",
  "is a robot": false,
  "sprites": {
    "normal": "/img/characters/GechterHappy.png",
    "angry": "/img/characters/GechterAngry.png",
    "joy": "/img/characters/GechterSuperHappy.png"
  }
}
