{
  "first name": "flight",
  "last name": "attendant",
  "is a robot": false,
  "sprites": {
    "normal": "/img/characters/hp.png",
    "angry": "/img/characters/hp.png",
    "joy": "/img/characters/hp.png"
  }
}
